Unit,Model,Disorder,Betweenness,Comorbidities
MICU,Pairwise,56 Cystic fibrosis,6677.875,"188 Fetopelvic disproportion; obstruction (0.89), 224 Other perinatal conditions (0.89), 2606 E Codes: Machinery (0.89), 185 Prolonged pregnancy (0.85)"
MICU,Pairwise,188 Fetopelvic disproportion; obstruction,6255.125,"187 Malposition; malpresentation (0.93), 191 Polyhydramnios and other problems of amniotic cavity (0.93), 56 Cystic fibrosis (0.89), 224 Other perinatal conditions (0.89), 2606 E Codes: Machinery (0.89)"
MICU,Pairwise,224 Other perinatal conditions,7734.625,"56 Cystic fibrosis (0.89), 188 Fetopelvic disproportion; obstruction (0.89), 2606 E Codes: Machinery (0.89), 185 Prolonged pregnancy (0.85)"
MICU,Partial,10 Immunizations and screening for infectious disease, 491.000,"154 Noninfectious gastroenteritis (0.20), 111 Other and ill-defined cerebrovascular disease (0.15), 193 OB-related trauma to perineum and vulva (0.15), 59 Deficiency and other anemia (0.14)"
MICU,Partial,83 Epilepsy; convulsions, 527.000,"35 Cancer of brain and nervous system (0.22), 129 Aspiration pneumonitis; food/vomitus (0.19), 113 Late effects of cerebrovascular disease (0.17), 95 Other nervous system disorders (0.16)"
MICU,Partial,140 Gastritis and duodenitis, 491.000,"152 Pancreatic disorders (not diabetes) (0.25), 141 Other disorders of stomach and duodenum (0.21), 2618 E Codes: Other specified and classifiable (0.21), 143 Abdominal hernia (0.19)"
MICU,JDM,166 Other male genital disorders, 858.000,"230 Fracture of lower limb (0.59), 659 Schizophrenia and other psychotic disorders (0.58), 29 Cancer of prostate (0.53), 137 Diseases of mouth; excluding dental (0.53)"
MICU,JDM,248 Gangrene, 333.000,"217 Other congenital anomalies (0.56), 245 Syncope (0.51), 18 Cancer of other GI organs; peritoneum (0.49), 2618 E Codes: Other specified and classifiable (0.48)"
MICU,JDM,252 Malaise and fatigue, 623.000,"226 Fracture of neck of femur (hip) (0.56), 24 Cancer of breast (0.54), 654 Developmental disorders (0.53), 166 Other male genital disorders (0.53)"
SICU,Pairwise,45 Maintenance chemotherapy; radiotherapy,2623.350,"124 Acute and chronic tonsillitis (0.88), 178 Induced abortion (0.88), 179 Postabortion complications (0.88), 185 Prolonged pregnancy (0.88), 190 Fetal distress and abnormal forces of labor (0.88), 192 Umbilical cord complication (0.88), 258 Other screening for suspected conditions (not mental disorders or infectious disease) (0.88), 656 Impulse control disorders, NEC (0.88), 2602 E Codes: Drowning/submersion (0.88)"
SICU,Pairwise,179 Postabortion complications,4127.350,"45 Maintenance chemotherapy; radiotherapy (0.88), 124 Acute and chronic tonsillitis (0.88), 178 Induced abortion (0.88), 185 Prolonged pregnancy (0.88), 190 Fetal distress and abnormal forces of labor (0.88), 192 Umbilical cord complication (0.88), 258 Other screening for suspected conditions (not mental disorders or infectious disease) (0.88), 656 Impulse control disorders, NEC (0.88), 2602 E Codes: Drowning/submersion (0.88)"
SICU,Pairwise,"656 Impulse control disorders, NEC",2882.767,"45 Maintenance chemotherapy; radiotherapy (0.88), 124 Acute and chronic tonsillitis (0.88), 178 Induced abortion (0.88), 179 Postabortion complications (0.88), 185 Prolonged pregnancy (0.88), 190 Fetal distress and abnormal forces of labor (0.88), 192 Umbilical cord complication (0.88), 258 Other screening for suspected conditions (not mental disorders or infectious disease) (0.88), 2602 E Codes: Drowning/submersion (0.88)"
SICU,Partial,59 Deficiency and other anemia, 534.000,"215 Genitourinary congenital anomalies (0.18), 154 Noninfectious gastroenteritis (0.17), 53 Disorders of lipid metabolism (0.15), 228 Skull and face fractures (0.15)"
SICU,Partial,60 Acute posthemorrhagic anemia, 558.000,"153 Gastrointestinal hemorrhage (0.20), 653 Delirium, dementia, and amnestic and other cognitive disorders (0.19), 2621 E Codes: Place of occurrence (0.15), 32 Cancer of bladder (0.14)"
SICU,Partial,111 Other and ill-defined cerebrovascular disease, 415.000,"109 Acute cerebrovascular disease (0.23), 84 Headache; including migraine (0.22), 89 Blindness and vision defects (0.19), 204 Other non-traumatic joint disorders (0.18)"
SICU,JDM,53 Disorders of lipid metabolism, 121.000,"101 Coronary atherosclerosis and other heart disease (0.26), 98 Essential hypertension (0.26), 22 Melanomas of skin (0.25), 78 Other CNS infection and poliomyelitis (0.24)"
SICU,JDM,78 Other CNS infection and poliomyelitis, 249.000,"22 Melanomas of skin (0.70), 107 Cardiac arrest and ventricular fibrillation (0.64), 19 Cancer of bronchus; lung (0.64), 201 Infective arthritis and osteomyelitis (except that caused by tuberculosis or sexually transmitted disease) (0.63)"
SICU,JDM,234 Crushing injury or internal injury, 145.000,"213 Cardiac and circulatory congenital anomalies (0.69), 253 Allergic reactions (0.66), 63 Diseases of white blood cells (0.65), 206 Osteoporosis (0.63)"
CCU,Pairwise,9 Sexually transmitted infections (not HIV or hepatitis),3461.333,"168 Inflammatory diseases of female pelvic organs (0.88), 181 Other complications of pregnancy (0.88), 656 Impulse control disorders, NEC (0.88), 2601 E Codes: Cut/pierceb (0.88), 2612 E Codes: Overexertion (0.88)"
CCU,Pairwise,168 Inflammatory diseases of female pelvic organs,3248.083,"9 Sexually transmitted infections (not HIV or hepatitis) (0.88), 181 Other complications of pregnancy (0.88), 656 Impulse control disorders, NEC (0.88), 2601 E Codes: Cut/pierceb (0.88), 2612 E Codes: Overexertion (0.88)"
CCU,Pairwise,"656 Impulse control disorders, NEC",2982.833,"9 Sexually transmitted infections (not HIV or hepatitis) (0.88), 168 Inflammatory diseases of female pelvic organs (0.88), 181 Other complications of pregnancy (0.88), 2601 E Codes: Cut/pierceb (0.88), 2612 E Codes: Overexertion (0.88)"
CCU,Partial,104 Other and ill-defined heart disease, 386.000,"239 Superficial injury; contusion (0.25), 128 Asthma (0.21), 85 Coma; stupor; and brain damage (0.17), 202 Rheumatoid arthritis and related disease (0.17)"
CCU,Partial,213 Cardiac and circulatory congenital anomalies, 352.000,"121 Other diseases of veins and lymphatics (0.26), 2615 E Codes: Suffocation (0.24), 96 Heart valve disorders (0.20), 136 Disorders of teeth and jaw (0.19)"
CCU,Partial,259 Residual codes; unclassified, 402.000,"257 Other aftercare (0.20), 663 Screening and history of mental health and substance abuse codes (0.20), 2603 E Codes: Fall (0.20), 103 Pulmonary heart disease (0.19)"
CCU,JDM,88 Glaucoma, 165.000,"246 Fever of unknown origin (0.56), 149 Biliary tract disease (0.47), 47 Other and unspecified benign neoplasm (0.47), 201 Infective arthritis and osteomyelitis (except that caused by tuberculosis or sexually transmitted disease) (0.46)"
CCU,JDM,114 Peripheral and visceral atherosclerosis, 145.000,"201 Infective arthritis and osteomyelitis (except that caused by tuberculosis or sexually transmitted disease) (0.37), 143 Abdominal hernia (0.34), 110 Occlusion or stenosis of precerebral arteries (0.33), 140 Gastritis and duodenitis (0.31)"
CCU,JDM,246 Fever of unknown origin, 293.000,"201 Infective arthritis and osteomyelitis (except that caused by tuberculosis or sexually transmitted disease) (0.56), 88 Glaucoma (0.56), 63 Diseases of white blood cells (0.53), 140 Gastritis and duodenitis (0.52)"
CSRU,Pairwise,34 Cancer of other urinary organs,1679.500,"124 Acute and chronic tonsillitis (0.88), 241 Poisoning by psychotropic agents (0.88), 243 Poisoning by nonmedicinal substances (0.88), 258 Other screening for suspected conditions (not mental disorders or infectious disease) (0.88), 2604 E Codes: Fire/burn (0.88), 2608 E Codes: Pedal cyclist; not MVT (0.88), 2611 E Codes: Natural/environment (0.88)"
CSRU,Pairwise,258 Other screening for suspected conditions (not mental disorders or infectious disease),2090.500,"34 Cancer of other urinary organs (0.88), 124 Acute and chronic tonsillitis (0.88), 241 Poisoning by psychotropic agents (0.88), 243 Poisoning by nonmedicinal substances (0.88), 2604 E Codes: Fire/burn (0.88), 2608 E Codes: Pedal cyclist; not MVT (0.88), 2611 E Codes: Natural/environment (0.88)"
CSRU,Pairwise,2608 E Codes: Pedal cyclist; not MVT,2553.750,"34 Cancer of other urinary organs (0.88), 124 Acute and chronic tonsillitis (0.88), 241 Poisoning by psychotropic agents (0.88), 243 Poisoning by nonmedicinal substances (0.88), 258 Other screening for suspected conditions (not mental disorders or infectious disease) (0.88), 2604 E Codes: Fire/burn (0.88), 2611 E Codes: Natural/environment (0.88)"
CSRU,Partial,29 Cancer of prostate, 360.000,"246 Fever of unknown origin (0.25), 653 Delirium, dementia, and amnestic and other cognitive disorders (0.21), 11 Cancer of head and neck (0.19), 162 Other diseases of bladder and urethra (0.19)"
CSRU,Partial,133 Other lower respiratory disease, 387.000,"259 Residual codes; unclassified (0.25), 13 Cancer of stomach (0.22), 8 Other infections; including parasitic (0.18), 2619 E Codes: Other specified; NEC (0.18)"
CSRU,Partial,246 Fever of unknown origin, 371.000,"198 Other inflammatory condition of skin (0.29), 63 Diseases of white blood cells (0.25), 29 Cancer of prostate (0.25), 10 Immunizations and screening for infectious disease (0.22)"
CSRU,JDM,100 Acute myocardial infarction, 159.000,"160 Calculus of urinary tract (0.24), 14 Cancer of colon (0.21), 249 Shock (0.21), 149 Biliary tract disease (0.19)"
CSRU,JDM,103 Pulmonary heart disease, 170.000,"202 Rheumatoid arthritis and related disease (0.39), 198 Other inflammatory condition of skin (0.37), 6 Hepatitis (0.35), 47 Other and unspecified benign neoplasm (0.34)"
CSRU,JDM,202 Rheumatoid arthritis and related disease, 275.000,"24 Cancer of breast (0.46), 47 Other and unspecified benign neoplasm (0.46), 661 Substance-related disorders (0.45), 198 Other inflammatory condition of skin (0.44)"
TSICU,Pairwise,20 Cancer; other respiratory and intrathoracic,4883.367,"9 Sexually transmitted infections (not HIV or hepatitis) (0.87), 31 Cancer of other male genital organs (0.87), 56 Cystic fibrosis (0.87), 119 Varicose veins of lower extremity (0.87), 180 Ectopic pregnancy (0.87), 183 Hypertension complicating pregnancy; childbirth and the puerperium (0.87), 184 Early or threatened labor (0.87), 186 Diabetes or abnormal glucose tolerance complicating pregnancy; childbirth; or the puerperium (0.87), 189 Previous C-section (0.87)"
TSICU,Pairwise,31 Cancer of other male genital organs,2083.950,"9 Sexually transmitted infections (not HIV or hepatitis) (0.87), 20 Cancer; other respiratory and intrathoracic (0.87), 56 Cystic fibrosis (0.87), 119 Varicose veins of lower extremity (0.87), 180 Ectopic pregnancy (0.87), 183 Hypertension complicating pregnancy; childbirth and the puerperium (0.87), 184 Early or threatened labor (0.87), 186 Diabetes or abnormal glucose tolerance complicating pregnancy; childbirth; or the puerperium (0.87), 189 Previous C-section (0.87)"
TSICU,Pairwise,119 Varicose veins of lower extremity,2689.783,"9 Sexually transmitted infections (not HIV or hepatitis) (0.87), 20 Cancer; other respiratory and intrathoracic (0.87), 31 Cancer of other male genital organs (0.87), 56 Cystic fibrosis (0.87), 180 Ectopic pregnancy (0.87), 183 Hypertension complicating pregnancy; childbirth and the puerperium (0.87), 184 Early or threatened labor (0.87), 186 Diabetes or abnormal glucose tolerance complicating pregnancy; childbirth; or the puerperium (0.87), 189 Previous C-section (0.87)"
TSICU,Partial,64 Other hematologic conditions, 448.000,"44 Neoplasms of unspecified nature or uncertain behavior (0.22), 22 Melanomas of skin (0.21), 114 Peripheral and visceral atherosclerosis (0.21), 50 Diabetes mellitus with complications (0.20)"
TSICU,Partial,111 Other and ill-defined cerebrovascular disease, 454.000,"109 Acute cerebrovascular disease (0.23), 253 Allergic reactions (0.17), 659 Schizophrenia and other psychotic disorders (0.16), 651 Anxiety disorders (0.16)"
TSICU,Partial,196 Other pregnancy and delivery including normal, 370.000,"195 Other complications of birth; puerperium affecting management of mother (0.18), 670 Miscellaneous mental health disorders (0.13), 163 Genitourinary symptoms and ill-defined conditions (0.11), 2607 E Codes: Motor vehicle traffic (MVT) (0.11)"
TSICU,JDM,225 Joint disorders and dislocations; trauma-related, 353.000,"246 Fever of unknown origin (0.57), 226 Fracture of neck of femur (hip) (0.55), 148 Peritonitis and intestinal abscess (0.52), 662 Suicide and intentional self-inflicted injury (0.51)"
TSICU,JDM,246 Fever of unknown origin, 138.000,"14 Cancer of colon (0.58), 225 Joint disorders and dislocations; trauma-related (0.57), 24 Cancer of breast (0.55), 662 Suicide and intentional self-inflicted injury (0.54)"
TSICU,JDM,2610 E Codes: Transport; not MVT, 113.000,"152 Pancreatic disorders (not diabetes) (0.52), 51 Other endocrine disorders (0.52), 107 Cardiac arrest and ventricular fibrillation (0.51), 24 Cancer of breast (0.49)"
