Unit,Disorder1,Disorder2,n1,n2,n12,Pairwise,Partial,JIDM,BtwVar
NWARD,10 Immunizations and screening for infectious disease,221 Respiratory distress syndrome,2568,141,100,-0.2107, 0.1218,-0.2612,0.0432918
NICU,10 Immunizations and screening for infectious disease,221 Respiratory distress syndrome,3221,1168,523,-0.3694,-0.1351,-0.3506,0.0169430
NWARD,10 Immunizations and screening for infectious disease,222 Hemolytic jaundice and perinatal jaundice,2568,634,468,-0.2622,-0.1142,-0.2577,0.0070888
NICU,10 Immunizations and screening for infectious disease,222 Hemolytic jaundice and perinatal jaundice,3221,2348,1221,-0.3689, 0.1841,-0.3379,0.0965381
MICU,101 Coronary atherosclerosis and other heart disease,161 Other diseases of kidney and ureters,4234,793,211, 0.0871, 0.0971, 0.1042,0.0000743
SICU,101 Coronary atherosclerosis and other heart disease,161 Other diseases of kidney and ureters,1528,234,52, 0.0733, 0.0910, 0.2452,0.0089442
CSRU,101 Coronary atherosclerosis and other heart disease,161 Other diseases of kidney and ureters,5949,232,163, 0.0631,-0.1367,-0.0511,0.0100512
SICU,101 Coronary atherosclerosis and other heart disease,234 Crushing injury or internal injury,1528,105,13,-0.0847,-0.0741, 0.3530,0.0623508
CSRU,101 Coronary atherosclerosis and other heart disease,234 Crushing injury or internal injury,5949,111,18,-0.4843, 0.0288,-0.0590,0.0753079
MICU,111 Other and ill-defined cerebrovascular disease,156 Nephritis; nephrosis; renal sclerosis,179,520,4,-0.0213,-0.0449, 0.2954,0.0361086
SICU,111 Other and ill-defined cerebrovascular disease,156 Nephritis; nephrosis; renal sclerosis,373,161,0,-0.3519,-0.1098, 0.5893,0.2388983
MICU,121 Other diseases of veins and lymphatics,201 Infective arthritis and osteomyelitis (except that caused by tuberculosis or sexually transmitted disease),532,419,10,-0.0166,-0.0383, 0.2185,0.0202857
SICU,121 Other diseases of veins and lymphatics,201 Infective arthritis and osteomyelitis (except that caused by tuberculosis or sexually transmitted disease),184,120,6, 0.1583,-0.0624, 0.5525,0.0970406
CCU,121 Other diseases of veins and lymphatics,201 Infective arthritis and osteomyelitis (except that caused by tuberculosis or sexually transmitted disease),118,101,4, 0.1656,-0.0985, 0.5603,0.1099408
SICU,14 Cancer of colon,246 Fever of unknown origin,212,162,5, 0.0426, 0.1103, 0.4190,0.0402613
CCU,14 Cancer of colon,246 Fever of unknown origin,130,100,2, 0.0261, 0.0249, 0.3819,0.0423405
TSICU,14 Cancer of colon,246 Fever of unknown origin,132,107,0,-0.2081,-0.1055, 0.5806,0.1838946
SICU,140 Gastritis and duodenitis,246 Fever of unknown origin,119,162,1,-0.1148,-0.0368, 0.5017,0.1126806
CCU,140 Gastritis and duodenitis,246 Fever of unknown origin,139,100,3, 0.0849, 0.0376, 0.5246,0.0721241
TSICU,146 Diverticulosis and diverticulitis,229 Fracture of upper limb,145,709,0,-0.4944, 0.0693, 0.2369,0.1467953
MICU,19 Cancer of bronchus; lung,42 Secondary malignancies,822,1624,394, 0.6363, 0.1979, 0.2337,0.0592858
SICU,19 Cancer of bronchus; lung,42 Secondary malignancies,332,758,195, 0.7044, 0.1678, 0.5812,0.0789905
CCU,19 Cancer of bronchus; lung,42 Secondary malignancies,171,231,68, 0.7108, 0.2834, 0.3897,0.0495020
CSRU,19 Cancer of bronchus; lung,42 Secondary malignancies,201,127,47, 0.6935, 0.1890, 0.3550,0.0660982
TSICU,19 Cancer of bronchus; lung,42 Secondary malignancies,164,340,79, 0.6794, 0.0273, 0.3440,0.1063307
MICU,19 Cancer of bronchus; lung,50 Diabetes mellitus with complications,822,2662,49,-0.1917, 0.0539, 0.1049,0.0251536
SICU,19 Cancer of bronchus; lung,50 Diabetes mellitus with complications,332,658,9,-0.2084, 0.0258, 0.2825,0.0602834
CSRU,19 Cancer of bronchus; lung,50 Diabetes mellitus with complications,201,654,1,-0.3893, 0.0352, 0.1815,0.0879194
TSICU,19 Cancer of bronchus; lung,50 Diabetes mellitus with complications,164,242,3,-0.1310,-0.0367, 0.3067,0.0530552
MICU,2 Septicemia (except in labor),131 Respiratory failure; insufficiency; arrest (adult),5188,6765,2451, 0.2896, 0.0727, 0.1514,0.0120594
SICU,2 Septicemia (except in labor),131 Respiratory failure; insufficiency; arrest (adult),1220,1925,588, 0.4587, 0.1536, 0.3364,0.0235780
CCU,2 Septicemia (except in labor),131 Respiratory failure; insufficiency; arrest (adult),903,1493,430, 0.4822, 0.0535, 0.2922,0.0461458
CSRU,2 Septicemia (except in labor),131 Respiratory failure; insufficiency; arrest (adult),437,1086,236, 0.6094,-0.0611, 0.2199,0.1133844
TSICU,2 Septicemia (except in labor),131 Respiratory failure; insufficiency; arrest (adult),638,1385,345, 0.4958, 0.1035, 0.2696,0.0387662
MICU,2 Septicemia (except in labor),148 Peritonitis and intestinal abscess,5188,471,282, 0.3767, 0.0815, 0.1833,0.0224718
SICU,2 Septicemia (except in labor),148 Peritonitis and intestinal abscess,1220,437,199, 0.4758, 0.1105, 0.4112,0.0380048
TSICU,2 Septicemia (except in labor),148 Peritonitis and intestinal abscess,638,244,122, 0.5897,-0.0295, 0.4244,0.1027999
MICU,2 Septicemia (except in labor),256 Medical examination/evaluation,5188,126,60, 0.2120, 0.0866, 0.1140,0.0043452
NICU,2 Septicemia (except in labor),256 Medical examination/evaluation,231,3690,14,-0.7899,-0.1787,-0.5195,0.0938031
CSRU,2 Septicemia (except in labor),256 Medical examination/evaluation,437,227,4,-0.1748,-0.1632, 0.1617,0.0364952
CCU,201 Infective arthritis and osteomyelitis (except that caused by tuberculosis or sexually transmitted disease),246 Fever of unknown origin,101,100,0,-0.1318,-0.1026, 0.5559,0.1512319
MICU,202 Rheumatoid arthritis and related disease,661 Substance-related disorders,329,1192,5,-0.2208,-0.1275, 0.2517,0.0626358
CSRU,202 Rheumatoid arthritis and related disease,661 Substance-related disorders,112,164,0,-0.1842,-0.0465, 0.4515,0.1118464
NWARD,217 Other congenital anomalies,224 Other perinatal conditions,161,1869,117, 0.1564,-0.0661, 0.1190,0.0141963
NWARD,218 Liveborn,222 Hemolytic jaundice and perinatal jaundice,3007,634,591,-0.5305,-0.1021,-0.3768,0.0471205
NICU,218 Liveborn,222 Hemolytic jaundice and perinatal jaundice,4747,2348,2176,-0.1804, 0.1059,-0.0976,0.0217014
NWARD,219 Short gestation; low birth weight; and fetal growth retardation,221 Respiratory distress syndrome,586,141,103, 0.6509, 0.3195, 0.6145,0.0330303
NICU,219 Short gestation; low birth weight; and fetal growth retardation,221 Respiratory distress syndrome,2893,1168,1141, 0.8333, 0.2257, 0.7434,0.1075582
NWARD,221 Respiratory distress syndrome,222 Hemolytic jaundice and perinatal jaundice,141,634,100, 0.6077, 0.1058, 0.5755,0.0789113
NICU,221 Respiratory distress syndrome,222 Hemolytic jaundice and perinatal jaundice,1168,2348,1027, 0.7367, 0.3611, 0.6910,0.0419986
MICU,230 Fracture of lower limb,2603 E Codes: Fall,102,743,54, 0.6409,-0.0179, 0.4111,0.1117892
MICU,233 Intracranial injury,2603 E Codes: Fall,289,743,206, 0.8403, 0.0978, 0.3114,0.1461101
SICU,233 Intracranial injury,2603 E Codes: Fall,732,794,571, 0.9401, 0.2016, 0.5434,0.1366179
CSRU,233 Intracranial injury,2603 E Codes: Fall,111,122,51, 0.8336, 0.1355, 0.2472,0.1406161
TSICU,233 Intracranial injury,2603 E Codes: Fall,1563,1334,726, 0.5720, 0.0804, 0.3508,0.0606267
CSRU,233 Intracranial injury,2616 E Codes: Adverse effects of medical care,111,1610,2,-0.3901, 0.0226, 0.0693,0.0639326
TSICU,233 Intracranial injury,2616 E Codes: Adverse effects of medical care,1563,796,62,-0.3923,-0.0769,-0.0811,0.0327228
MICU,24 Cancer of breast,29 Cancer of prostate,639,618,0,-0.4427,-0.2125, 0.3379,0.1609068
CCU,24 Cancer of breast,29 Cancer of prostate,202,222,1,-0.2608,-0.0637, 0.1642,0.0452232
CSRU,24 Cancer of breast,29 Cancer of prostate,164,349,1,-0.2651,-0.1066, 0.2028,0.0566454
TSICU,24 Cancer of breast,29 Cancer of prostate,139,130,1,-0.1586,-0.0765, 0.3390,0.0711840
MICU,242 Poisoning by other medications and drugs,662 Suicide and intentional self-inflicted injury,512,421,245, 0.8679, 0.1620, 0.2504,0.1479064
TSICU,2603 E Codes: Fall,2607 E Codes: Motor vehicle traffic (MVT),1334,1284,6,-0.7574, 0.1653,-0.1284,0.2222022
MICU,33 Cancer of kidney and renal pelvis,212 Other bone disease and musculoskeletal deformities,318,456,6,-0.0286, 0.0883, 0.2670,0.0221697
SICU,33 Cancer of kidney and renal pelvis,212 Other bone disease and musculoskeletal deformities,152,164,4, 0.0579,-0.1482, 0.6024,0.1504007
MICU,5 HIV infection,39 Leukemias,552,450,3,-0.2105, 0.0640, 0.4606,0.1138219
SICU,6 Hepatitis,110 Occlusion or stenosis of precerebral arteries,617,140,1,-0.3398,-0.1202, 0.2707,0.0956217
CCU,6 Hepatitis,110 Occlusion or stenosis of precerebral arteries,248,279,0,-0.3924, 0.0429, 0.2527,0.1082723
MICU,63 Diseases of white blood cells,111 Other and ill-defined cerebrovascular disease,1210,179,4,-0.1577,-0.0574, 0.1538,0.0252730
SICU,63 Diseases of white blood cells,111 Other and ill-defined cerebrovascular disease,215,373,2,-0.2440, 0.0237, 0.5888,0.1807876
NICU,87 Retinal detachments; defects; vascular occlusion; and retinopathy,221 Respiratory distress syndrome,172,1168,136, 0.6260,-0.0652, 0.4597,0.1301324
MICU,88 Glaucoma,101 Coronary atherosclerosis and other heart disease,307,4234,107, 0.1693,-0.0161, 0.1003,0.0087797
CCU,88 Glaucoma,101 Coronary atherosclerosis and other heart disease,122,4447,82, 0.0955,-0.0244,-0.0384,0.0054118
CCU,98 Essential hypertension,157 Acute and unspecified renal failure,3216,2143,648,-0.2532, 0.1324,-0.1325,0.0389095
MICU,98 Essential hypertension,99 Hypertension with complications and secondary hypertension,7054,3448,25,-0.8110,-0.2777,-0.2054,0.1093856
SICU,98 Essential hypertension,99 Hypertension with complications and secondary hypertension,3814,976,11,-0.7977,-0.1533,-0.1968,0.1296792
CCU,98 Essential hypertension,99 Hypertension with complications and secondary hypertension,3216,1414,7,-0.8762,-0.1732,-0.3171,0.1379257
CSRU,98 Essential hypertension,99 Hypertension with complications and secondary hypertension,5255,854,5,-0.8783,-0.2243,-0.3025,0.1275801
